Problem 1:
{'Cargo_1_is_at_KRK': True, 'Cargo_1_is_at_WAW': False, 'Cargo_1_is_at_GDN': False, 'Cargo_2_is_at_KRK': True, 'Cargo_2_is_at_WAW': False, 'Cargo_2_is_at_GDN': False, 'Plane_1_is_at_KRK': True, 'Plane_1_is_at_WAW': False, 'Plane_1_is_at_GDN': False, 'Plane_2_is_at_KRK': False, 'Plane_2_is_at_WAW': True, 'Plane_2_is_at_GDN': False, 'Cargo_1_is_in_Plane_1': False, 'Cargo_1_is_in_Plane_2': False, 'Cargo_2_is_in_Plane_1': False, 'Cargo_2_is_in_Plane_2': False}
   --Cargo_2_load_Plane_1_from_KRK--> {'Cargo_1_is_at_KRK': True, 'Cargo_1_is_at_WAW': False, 'Cargo_1_is_at_GDN': False, 'Cargo_2_is_at_KRK': False, 'Cargo_2_is_at_WAW': False, 'Cargo_2_is_at_GDN': False, 'Plane_1_is_at_KRK': True, 'Plane_1_is_at_WAW': False, 'Plane_1_is_at_GDN': False, 'Plane_2_is_at_KRK': False, 'Plane_2_is_at_WAW': True, 'Plane_2_is_at_GDN': False, 'Cargo_1_is_in_Plane_1': False, 'Cargo_1_is_in_Plane_2': False, 'Cargo_2_is_in_Plane_1': True, 'Cargo_2_is_in_Plane_2': False}
   --Cargo_1_load_Plane_1_from_KRK--> {'Cargo_1_is_at_KRK': False, 'Cargo_1_is_at_WAW': False, 'Cargo_1_is_at_GDN': False, 'Cargo_2_is_at_KRK': False, 'Cargo_2_is_at_WAW': False, 'Cargo_2_is_at_GDN': False, 'Plane_1_is_at_KRK': True, 'Plane_1_is_at_WAW': False, 'Plane_1_is_at_GDN': False, 'Plane_2_is_at_KRK': False, 'Plane_2_is_at_WAW': True, 'Plane_2_is_at_GDN': False, 'Cargo_1_is_in_Plane_1': True, 'Cargo_1_is_in_Plane_2': False, 'Cargo_2_is_in_Plane_1': True, 'Cargo_2_is_in_Plane_2': False}
   --Plane_1_fly_from_KRK_to_WAW--> {'Cargo_1_is_at_KRK': False, 'Cargo_1_is_at_WAW': False, 'Cargo_1_is_at_GDN': False, 'Cargo_2_is_at_KRK': False, 'Cargo_2_is_at_WAW': False, 'Cargo_2_is_at_GDN': False, 'Plane_1_is_at_KRK': False, 'Plane_1_is_at_WAW': True, 'Plane_1_is_at_GDN': False, 'Plane_2_is_at_KRK': False, 'Plane_2_is_at_WAW': True, 'Plane_2_is_at_GDN': False, 'Cargo_1_is_in_Plane_1': True, 'Cargo_1_is_in_Plane_2': False, 'Cargo_2_is_in_Plane_1': True, 'Cargo_2_is_in_Plane_2': False}
   --Cargo_2_unload_Plane_1_from_WAW--> {'Cargo_1_is_at_KRK': False, 'Cargo_1_is_at_WAW': False, 'Cargo_1_is_at_GDN': False, 'Cargo_2_is_at_KRK': False, 'Cargo_2_is_at_WAW': True, 'Cargo_2_is_at_GDN': False, 'Plane_1_is_at_KRK': False, 'Plane_1_is_at_WAW': True, 'Plane_1_is_at_GDN': False, 'Plane_2_is_at_KRK': False, 'Plane_2_is_at_WAW': True, 'Plane_2_is_at_GDN': False, 'Cargo_1_is_in_Plane_1': True, 'Cargo_1_is_in_Plane_2': False, 'Cargo_2_is_in_Plane_1': False, 'Cargo_2_is_in_Plane_2': False}
   --Plane_2_fly_from_WAW_to_KRK--> {'Cargo_1_is_at_KRK': False, 'Cargo_1_is_at_WAW': False, 'Cargo_1_is_at_GDN': False, 'Cargo_2_is_at_KRK': False, 'Cargo_2_is_at_WAW': True, 'Cargo_2_is_at_GDN': False, 'Plane_1_is_at_KRK': False, 'Plane_1_is_at_WAW': True, 'Plane_1_is_at_GDN': False, 'Plane_2_is_at_KRK': True, 'Plane_2_is_at_WAW': False, 'Plane_2_is_at_GDN': False, 'Cargo_1_is_in_Plane_1': True, 'Cargo_1_is_in_Plane_2': False, 'Cargo_2_is_in_Plane_1': False, 'Cargo_2_is_in_Plane_2': False}
   --Cargo_1_unload_Plane_1_from_WAW--> {'Cargo_1_is_at_KRK': False, 'Cargo_1_is_at_WAW': True, 'Cargo_1_is_at_GDN': False, 'Cargo_2_is_at_KRK': False, 'Cargo_2_is_at_WAW': True, 'Cargo_2_is_at_GDN': False, 'Plane_1_is_at_KRK': False, 'Plane_1_is_at_WAW': True, 'Plane_1_is_at_GDN': False, 'Plane_2_is_at_KRK': True, 'Plane_2_is_at_WAW': False, 'Plane_2_is_at_GDN': False, 'Cargo_1_is_in_Plane_1': False, 'Cargo_1_is_in_Plane_2': False, 'Cargo_2_is_in_Plane_1': False, 'Cargo_2_is_in_Plane_2': False}

Problem 2:
{'Cargo_1_is_at_KRK': True, 'Cargo_1_is_at_WAW': False, 'Cargo_1_is_at_GDN': False, 'Cargo_2_is_at_KRK': False, 'Cargo_2_is_at_WAW': True, 'Cargo_2_is_at_GDN': False, 'Plane_1_is_at_KRK': False, 'Plane_1_is_at_WAW': False, 'Plane_1_is_at_GDN': True, 'Plane_2_is_at_KRK': False, 'Plane_2_is_at_WAW': False, 'Plane_2_is_at_GDN': True, 'Cargo_1_is_in_Plane_1': False, 'Cargo_1_is_in_Plane_2': False, 'Cargo_2_is_in_Plane_1': False, 'Cargo_2_is_in_Plane_2': False}
   --Plane_1_fly_from_GDN_to_WAW--> {'Cargo_1_is_at_KRK': True, 'Cargo_1_is_at_WAW': False, 'Cargo_1_is_at_GDN': False, 'Cargo_2_is_at_KRK': False, 'Cargo_2_is_at_WAW': True, 'Cargo_2_is_at_GDN': False, 'Plane_1_is_at_KRK': False, 'Plane_1_is_at_WAW': True, 'Plane_1_is_at_GDN': False, 'Plane_2_is_at_KRK': False, 'Plane_2_is_at_WAW': False, 'Plane_2_is_at_GDN': True, 'Cargo_1_is_in_Plane_1': False, 'Cargo_1_is_in_Plane_2': False, 'Cargo_2_is_in_Plane_1': False, 'Cargo_2_is_in_Plane_2': False}
   --Cargo_2_load_Plane_1_from_WAW--> {'Cargo_1_is_at_KRK': True, 'Cargo_1_is_at_WAW': False, 'Cargo_1_is_at_GDN': False, 'Cargo_2_is_at_KRK': False, 'Cargo_2_is_at_WAW': False, 'Cargo_2_is_at_GDN': False, 'Plane_1_is_at_KRK': False, 'Plane_1_is_at_WAW': True, 'Plane_1_is_at_GDN': False, 'Plane_2_is_at_KRK': False, 'Plane_2_is_at_WAW': False, 'Plane_2_is_at_GDN': True, 'Cargo_1_is_in_Plane_1': False, 'Cargo_1_is_in_Plane_2': False, 'Cargo_2_is_in_Plane_1': True, 'Cargo_2_is_in_Plane_2': False}
   --Plane_1_fly_from_WAW_to_KRK--> {'Cargo_1_is_at_KRK': True, 'Cargo_1_is_at_WAW': False, 'Cargo_1_is_at_GDN': False, 'Cargo_2_is_at_KRK': False, 'Cargo_2_is_at_WAW': False, 'Cargo_2_is_at_GDN': False, 'Plane_1_is_at_KRK': True, 'Plane_1_is_at_WAW': False, 'Plane_1_is_at_GDN': False, 'Plane_2_is_at_KRK': False, 'Plane_2_is_at_WAW': False, 'Plane_2_is_at_GDN': True, 'Cargo_1_is_in_Plane_1': False, 'Cargo_1_is_in_Plane_2': False, 'Cargo_2_is_in_Plane_1': True, 'Cargo_2_is_in_Plane_2': False}
   --Cargo_2_unload_Plane_1_from_KRK--> {'Cargo_1_is_at_KRK': True, 'Cargo_1_is_at_WAW': False, 'Cargo_1_is_at_GDN': False, 'Cargo_2_is_at_KRK': True, 'Cargo_2_is_at_WAW': False, 'Cargo_2_is_at_GDN': False, 'Plane_1_is_at_KRK': True, 'Plane_1_is_at_WAW': False, 'Plane_1_is_at_GDN': False, 'Plane_2_is_at_KRK': False, 'Plane_2_is_at_WAW': False, 'Plane_2_is_at_GDN': True, 'Cargo_1_is_in_Plane_1': False, 'Cargo_1_is_in_Plane_2': False, 'Cargo_2_is_in_Plane_1': False, 'Cargo_2_is_in_Plane_2': False}
   --Cargo_1_load_Plane_1_from_KRK--> {'Cargo_1_is_at_KRK': False, 'Cargo_1_is_at_WAW': False, 'Cargo_1_is_at_GDN': False, 'Cargo_2_is_at_KRK': True, 'Cargo_2_is_at_WAW': False, 'Cargo_2_is_at_GDN': False, 'Plane_1_is_at_KRK': True, 'Plane_1_is_at_WAW': False, 'Plane_1_is_at_GDN': False, 'Plane_2_is_at_KRK': False, 'Plane_2_is_at_WAW': False, 'Plane_2_is_at_GDN': True, 'Cargo_1_is_in_Plane_1': True, 'Cargo_1_is_in_Plane_2': False, 'Cargo_2_is_in_Plane_1': False, 'Cargo_2_is_in_Plane_2': False}
   --Plane_1_fly_from_KRK_to_GDN--> {'Cargo_1_is_at_KRK': False, 'Cargo_1_is_at_WAW': False, 'Cargo_1_is_at_GDN': False, 'Cargo_2_is_at_KRK': True, 'Cargo_2_is_at_WAW': False, 'Cargo_2_is_at_GDN': False, 'Plane_1_is_at_KRK': False, 'Plane_1_is_at_WAW': False, 'Plane_1_is_at_GDN': True, 'Plane_2_is_at_KRK': False, 'Plane_2_is_at_WAW': False, 'Plane_2_is_at_GDN': True, 'Cargo_1_is_in_Plane_1': True, 'Cargo_1_is_in_Plane_2': False, 'Cargo_2_is_in_Plane_1': False, 'Cargo_2_is_in_Plane_2': False}

Problem 3:
{'Cargo_1_is_at_KRK': False, 'Cargo_1_is_at_WAW': True, 'Cargo_1_is_at_GDN': False, 'Cargo_2_is_at_KRK': False, 'Cargo_2_is_at_WAW': True, 'Cargo_2_is_at_GDN': False, 'Plane_1_is_at_KRK': False, 'Plane_1_is_at_WAW': False, 'Plane_1_is_at_GDN': True, 'Plane_2_is_at_KRK': True, 'Plane_2_is_at_WAW': False, 'Plane_2_is_at_GDN': False, 'Cargo_1_is_in_Plane_1': False, 'Cargo_1_is_in_Plane_2': False, 'Cargo_2_is_in_Plane_1': False, 'Cargo_2_is_in_Plane_2': False}
   --Plane_2_fly_from_KRK_to_WAW--> {'Cargo_1_is_at_KRK': False, 'Cargo_1_is_at_WAW': True, 'Cargo_1_is_at_GDN': False, 'Cargo_2_is_at_KRK': False, 'Cargo_2_is_at_WAW': True, 'Cargo_2_is_at_GDN': False, 'Plane_1_is_at_KRK': False, 'Plane_1_is_at_WAW': False, 'Plane_1_is_at_GDN': True, 'Plane_2_is_at_KRK': False, 'Plane_2_is_at_WAW': True, 'Plane_2_is_at_GDN': False, 'Cargo_1_is_in_Plane_1': False, 'Cargo_1_is_in_Plane_2': False, 'Cargo_2_is_in_Plane_1': False, 'Cargo_2_is_in_Plane_2': False}
   --Cargo_2_load_Plane_2_from_WAW--> {'Cargo_1_is_at_KRK': False, 'Cargo_1_is_at_WAW': True, 'Cargo_1_is_at_GDN': False, 'Cargo_2_is_at_KRK': False, 'Cargo_2_is_at_WAW': False, 'Cargo_2_is_at_GDN': False, 'Plane_1_is_at_KRK': False, 'Plane_1_is_at_WAW': False, 'Plane_1_is_at_GDN': True, 'Plane_2_is_at_KRK': False, 'Plane_2_is_at_WAW': True, 'Plane_2_is_at_GDN': False, 'Cargo_1_is_in_Plane_1': False, 'Cargo_1_is_in_Plane_2': False, 'Cargo_2_is_in_Plane_1': False, 'Cargo_2_is_in_Plane_2': True}
   --Cargo_1_load_Plane_2_from_WAW--> {'Cargo_1_is_at_KRK': False, 'Cargo_1_is_at_WAW': False, 'Cargo_1_is_at_GDN': False, 'Cargo_2_is_at_KRK': False, 'Cargo_2_is_at_WAW': False, 'Cargo_2_is_at_GDN': False, 'Plane_1_is_at_KRK': False, 'Plane_1_is_at_WAW': False, 'Plane_1_is_at_GDN': True, 'Plane_2_is_at_KRK': False, 'Plane_2_is_at_WAW': True, 'Plane_2_is_at_GDN': False, 'Cargo_1_is_in_Plane_1': False, 'Cargo_1_is_in_Plane_2': True, 'Cargo_2_is_in_Plane_1': False, 'Cargo_2_is_in_Plane_2': True}
   --Plane_2_fly_from_WAW_to_KRK--> {'Cargo_1_is_at_KRK': False, 'Cargo_1_is_at_WAW': False, 'Cargo_1_is_at_GDN': False, 'Cargo_2_is_at_KRK': False, 'Cargo_2_is_at_WAW': False, 'Cargo_2_is_at_GDN': False, 'Plane_1_is_at_KRK': False, 'Plane_1_is_at_WAW': False, 'Plane_1_is_at_GDN': True, 'Plane_2_is_at_KRK': True, 'Plane_2_is_at_WAW': False, 'Plane_2_is_at_GDN': False, 'Cargo_1_is_in_Plane_1': False, 'Cargo_1_is_in_Plane_2': True, 'Cargo_2_is_in_Plane_1': False, 'Cargo_2_is_in_Plane_2': True}
   --Cargo_2_unload_Plane_2_from_KRK--> {'Cargo_1_is_at_KRK': False, 'Cargo_1_is_at_WAW': False, 'Cargo_1_is_at_GDN': False, 'Cargo_2_is_at_KRK': True, 'Cargo_2_is_at_WAW': False, 'Cargo_2_is_at_GDN': False, 'Plane_1_is_at_KRK': False, 'Plane_1_is_at_WAW': False, 'Plane_1_is_at_GDN': True, 'Plane_2_is_at_KRK': True, 'Plane_2_is_at_WAW': False, 'Plane_2_is_at_GDN': False, 'Cargo_1_is_in_Plane_1': False, 'Cargo_1_is_in_Plane_2': True, 'Cargo_2_is_in_Plane_1': False, 'Cargo_2_is_in_Plane_2': False}
   --Plane_2_fly_from_KRK_to_GDN--> {'Cargo_1_is_at_KRK': False, 'Cargo_1_is_at_WAW': False, 'Cargo_1_is_at_GDN': False, 'Cargo_2_is_at_KRK': True, 'Cargo_2_is_at_WAW': False, 'Cargo_2_is_at_GDN': False, 'Plane_1_is_at_KRK': False, 'Plane_1_is_at_WAW': False, 'Plane_1_is_at_GDN': True, 'Plane_2_is_at_KRK': False, 'Plane_2_is_at_WAW': False, 'Plane_2_is_at_GDN': True, 'Cargo_1_is_in_Plane_1': False, 'Cargo_1_is_in_Plane_2': True, 'Cargo_2_is_in_Plane_1': False, 'Cargo_2_is_in_Plane_2': False}
   --Cargo_1_unload_Plane_2_from_GDN--> {'Cargo_1_is_at_KRK': False, 'Cargo_1_is_at_WAW': False, 'Cargo_1_is_at_GDN': True, 'Cargo_2_is_at_KRK': True, 'Cargo_2_is_at_WAW': False, 'Cargo_2_is_at_GDN': False, 'Plane_1_is_at_KRK': False, 'Plane_1_is_at_WAW': False, 'Plane_1_is_at_GDN': True, 'Plane_2_is_at_KRK': False, 'Plane_2_is_at_WAW': False, 'Plane_2_is_at_GDN': True, 'Cargo_1_is_in_Plane_1': False, 'Cargo_1_is_in_Plane_2': False, 'Cargo_2_is_in_Plane_1': False, 'Cargo_2_is_in_Plane_2': False}
   --Plane_1_fly_from_GDN_to_WAW--> {'Cargo_1_is_at_KRK': False, 'Cargo_1_is_at_WAW': False, 'Cargo_1_is_at_GDN': True, 'Cargo_2_is_at_KRK': True, 'Cargo_2_is_at_WAW': False, 'Cargo_2_is_at_GDN': False, 'Plane_1_is_at_KRK': False, 'Plane_1_is_at_WAW': True, 'Plane_1_is_at_GDN': False, 'Plane_2_is_at_KRK': False, 'Plane_2_is_at_WAW': False, 'Plane_2_is_at_GDN': True, 'Cargo_1_is_in_Plane_1': False, 'Cargo_1_is_in_Plane_2': False, 'Cargo_2_is_in_Plane_1': False, 'Cargo_2_is_in_Plane_2': False}
   --Plane_2_fly_from_GDN_to_WAW--> {'Cargo_1_is_at_KRK': False, 'Cargo_1_is_at_WAW': False, 'Cargo_1_is_at_GDN': True, 'Cargo_2_is_at_KRK': True, 'Cargo_2_is_at_WAW': False, 'Cargo_2_is_at_GDN': False, 'Plane_1_is_at_KRK': False, 'Plane_1_is_at_WAW': True, 'Plane_1_is_at_GDN': False, 'Plane_2_is_at_KRK': False, 'Plane_2_is_at_WAW': True, 'Plane_2_is_at_GDN': False, 'Cargo_1_is_in_Plane_1': False, 'Cargo_1_is_in_Plane_2': False, 'Cargo_2_is_in_Plane_1': False, 'Cargo_2_is_in_Plane_2': False}